Classification - KNN | TwoSidesData
…
Checking the timing table

(x <- tic.log() %>%
  as.character() %>% 
  tibble(log = .) %>% 
  separate(log,sep = ': ',into = c('name','time'))) %>% 
  separate(time, sep = ' ',c('measure','units')) %>%
  mutate(measure = measure %>% as.numeric()) %>% 
  arrange(measure %>% desc())

## Warning: Expected 2 pieces. Additional pieces discarded in 31 rows [1, 2, 3, 4,
## 5, 6, 7, 8, 9, 10, 11, 12, 13, 14, 15, 16, 17, 18, 19, 20, ...].

## # A tibble: 31 x 3
##    name                            measure units
##    <chr>                             <dbl> <chr>
##  1 Bayes Search                      26.4  sec  
##  2 naive grid search                  6.31 sec  
##  3 Loading Libraries                  3.65 sec  
##  4 set up parallel                    1.29 sec  
##  5 Data Explorer  individual plots    1.05 sec  
##  6 Fitting production                 0.28 sec  
##  7 unnamed-chunk-6                    0.2  sec  
##  8 Set Chunk                          0.16 sec  
##  9 unnamed-chunk-5                    0.16 sec  
## 10 unnamed-chunk-16                   0.16 sec  
## # … with 21 more rows
…
