Presentation Data Science and Decision Making 1 | TwoSidesData
…
## Warning: `cols` is now required when using unnest().
## Please use `cols = c(.pred)`

## Warning: `cols` is now required when using unnest().
## Please use `cols = c(ok)`

Metrics Lasso

lasso_roc_auc_cv

## # A tibble: 100 x 3
##    penalty .estimator roc_auc
##      <dbl> <chr>        <dbl>
##  1    273. binary       0.5  
##  2    249. binary       0.123
##  3    227. binary       0.123
##  4    206. binary       0.123
##  5    188. binary       0.123
##  6    171. binary       0.123
##  7    156. binary       0.123
##  8    142. binary       0.123
##  9    130. binary       0.123
## 10    118. binary       0.123
## # ... with 90 more rows
…
## Warning: `cols` is now required when using unnest().
## Please use `cols = c(.pred)`

## Warning: `cols` is now required when using unnest().
## Please use `cols = c(ok)`

Metrics Ridge

ridge_results_cv

## # A tibble: 66 x 3
##    penalty .estimator roc_auc
##      <dbl> <chr>        <dbl>
##  1   0.273 binary       0.5  
##  2   0.249 binary       0.171
##  3   0.227 binary       0.155
##  4   0.206 binary       0.152
##  5   0.188 binary       0.150
##  6   0.171 binary       0.141
##  7   0.156 binary       0.134
##  8   0.142 binary       0.130
##  9   0.130 binary       0.127
## 10   0.118 binary       0.125
## # ... with 56 more rows
…
