…
sales <- sales %>% filter(Revenue > 0)

3.3.9 Groupby example in tidyverse

I prefer the tidy way here as well.

CountryGroups <- sales %>% 
  group_by(Country) %>% 
  summarise(sum_revenue = sum(Revenue),
            number_cases = n()) %>% 
  arrange(-sum_revenue)

CountryGroups

## # A tibble: 38 x 3
##    Country        sum_revenue number_cases
##    <chr>                <dbl>        <int>
##  1 United Kingdom    5311080.       291129
##  2 EIRE               176305.         4788
##  3 Netherlands        165583.         1391
##  4 Germany            138778.         5465
##  5 France             127194.         5025
##  6 Australia           79198.          726
##  7 Spain               36117.         1420
##  8 Switzerland         34315.         1169
##  9 Belgium             24015.         1191
## 10 Norway              23182.          658
## # ... with 28 more rows
…
