Classification - KNN
…
unnamed-chunk-2: 0.08 sec elapsed

We can then create our train and test data frames by baking our recipe and juicing our recipe

df_testing <- df_recipe %>% 
  bake(testing(df_split))
df_testing

## # A tibble: 113 x 22
<<<<<<< HEAD
##        id diagnosis radius_mean texture_mean smoothness_mean
##     <dbl> <fct>           <dbl>        <dbl>           <dbl>
##  1 -0.234 M               1.11        -2.13          1.57   
##  2 -0.234 M               1.84        -0.370        -0.808  
##  3 -0.234 M              -0.308        0.596         2.20   
##  4  0.427 M               0.480       -0.341         0.0652 
##  5 -0.234 M               0.500        1.10         -0.860  
##  6 -0.234 M               0.168        0.193         0.176  
##  7 -0.174 B              -1.30        -1.64          0.440  
##  8 -0.234 M               0.866       -0.696         1.58   
##  9 -0.234 M               0.753        0.541        -0.00541
## 10 -0.234 B              -0.300       -0.215        -0.448  
## # ... with 103 more rows, and 17 more variables: compactness_mean <dbl>,
## #   symmetry_mean <dbl>, fractal_dimension_mean <dbl>, texture_se <dbl>,
## #   area_se <dbl>, smoothness_se <dbl>, compactness_se <dbl>,
## #   concavity_se <dbl>, `concave points_se` <dbl>, symmetry_se <dbl>,
…
