…
## Warning: `cols` is now required.
## Please use `cols = c(.pred)`

## Warning: `cols` is now required.
## Please use `cols = c(ok)`

Metrics Lasso

lasso_roc_auc_cv

## # A tibble: 100 x 3
##    penalty .estimator roc_auc
##      <dbl> <chr>        <dbl>
##  1  0.0273 binary       0.884
##  2  0.0300 binary       0.884
##  3  0.0329 binary       0.884
##  4  0.0361 binary       0.884
##  5  0.0396 binary       0.884
##  6  0.0435 binary       0.884
##  7  0.0477 binary       0.884
##  8  0.0523 binary       0.884
##  9  0.0575 binary       0.884
## 10  0.0631 binary       0.884
## # ... with 90 more rows
…
## Warning: `cols` is now required.
## Please use `cols = c(.pred)`

## Warning: `cols` is now required.
## Please use `cols = c(ok)`

Metrics Ridge

ridge_results_cv

## # A tibble: 65 x 3
##     penalty .estimator roc_auc
##       <dbl> <chr>        <dbl>
##  1 0.00136  binary       0.885
##  2 0.00149  binary       0.885
##  3 0.00164  binary       0.885
##  4 0.00124  binary       0.885
##  5 0.00180  binary       0.885
##  6 0.00103  binary       0.885
##  7 0.00113  binary       0.885
##  8 0.000936 binary       0.885
##  9 0.000777 binary       0.885
## 10 0.000708 binary       0.885
## # ... with 55 more rows
…
