…
    ## Warning: `cols` is now required when using unnest().
    ## Please use `cols = c(.pred)`

    ## Warning: `cols` is now required when using unnest().
    ## Please use `cols = c(ok)`

### Metrics Lasso

``` r
lasso_roc_auc_cv
```

    ## # A tibble: 100 x 3
    ##    penalty .estimator roc_auc
    ##      <dbl> <chr>        <dbl>
    ##  1    272. binary       0.5  
    ##  2    248. binary       0.121
    ##  3    226. binary       0.121
    ##  4    206. binary       0.121
    ##  5    188. binary       0.121
    ##  6    171. binary       0.121
    ##  7    156. binary       0.121
    ##  8    142. binary       0.121
    ##  9    129. binary       0.121
    ## 10    118. binary       0.121
    ## # ... with 90 more rows
…
    ## Warning: `cols` is now required when using unnest().
    ## Please use `cols = c(.pred)`

    ## Warning: `cols` is now required when using unnest().
    ## Please use `cols = c(ok)`

### Metrics Ridge

``` r
ridge_results_cv
```

    ## # A tibble: 65 x 3
    ##    penalty .estimator roc_auc
    ##      <dbl> <chr>        <dbl>
    ##  1   0.272 binary       0.5  
    ##  2   0.248 binary       0.165
    ##  3   0.226 binary       0.150
    ##  4   0.206 binary       0.147
    ##  5   0.188 binary       0.145
    ##  6   0.171 binary       0.136
    ##  7   0.156 binary       0.130
    ##  8   0.142 binary       0.126
    ##  9   0.129 binary       0.123
    ## 10   0.118 binary       0.122
    ## # ... with 55 more rows
…
